{
  "replace": false,
  "values": [
    "tardis:alabaster_slab",
    "tardis:tungsten_plate_slab",
    "tardis:tungsten_pipes_slab",
    "tardis:tungsten_pattern_slab",
    "tardis:tungsten_slab",
    "tardis:metal_grate_slab",
    "tardis:blue_concrete_slab",
    "tardis:gallifreyan_yellow_slab",
    "tardis:yellow_crystal_slab"
  ]
}