{
  "parent": "block/slab_top",
  "textures": {
    "bottom": "tardis:blocks/technology/tungsten",
    "top": "tardis:blocks/technology/tungsten",
    "side": "tardis:blocks/technology/tungsten_pipes"
  }
}
