{
	"forge_marker": 1,
	"defaults":{
		"model":"tardis:block/decorations/chalk_board"
	},
	"variants":{
		"facing=north":{
			"y": 0
		},
		"facing=east":{
			"y": 90
		},
		"facing=south":{
			"y": 180
		},
		"facing=west":{
			"y": 270
		}
	}
}