{
  "type": "tardis:space",
  "generator": {
    "biome_source": {
      "type": "minecraft:multi_noise",
      "seed": 0,
      "biomes": [
        {
          "parameters": {
            "altitude": 0.0,
            "weirdness": 0.0,
            "offset": 0.0,
            "temperature": 0.0,
            "humidity": 0.0
          },
          "biome": "tardis:space"
        }
      ],
      
      "temperature_noise": {
        "firstOctave": -7,
        "amplitudes": [
          1.0,
          1.0
        ]
      },
      "humidity_noise": {
        "firstOctave": -7,
        "amplitudes": [
          1.0,
          1.0
        ]
      },
      "altitude_noise": {
        "firstOctave": -7,
        "amplitudes": [
          1.0,
          1.0
        ]
      },
      "weirdness_noise": {
        "firstOctave": -7,
        "amplitudes": [
          1.0,
          1.0
        ]
      }
    },
    "seed": 0,
    "settings": "tardis:space",
    "type": "tardis:space"
  }
}