{
	"type": "tardis:quantiscope",
	"repair":false,
	"ingredients":[
		{"item":"minecraft:iron_ingot"},
		{"item":"minecraft:iron_ingot"},
		{"item":"tardis:circuits"},
		{"item":"tardis:mercury_bottle"}
	],
	"result":{
		"item":"tardis:subsystem/fluid_link"
	}
}