{
  "textures": [
    "tardis:new_particle32_00000",
    "tardis:new_particle32_00001",
    "tardis:new_particle32_00002",
    "tardis:new_particle32_00003",
    "tardis:new_particle32_00004",
    "tardis:new_particle32_00005",
    "tardis:new_particle32_00006",
    "tardis:new_particle32_00007",
    "tardis:new_particle32_00008",
    "tardis:new_particle32_00009",
    "tardis:new_particle32_00010",
    "tardis:new_particle32_00011",
    "tardis:new_particle32_00012",
    "tardis:new_particle32_00013",
    "tardis:new_particle32_00014",
    "tardis:new_particle32_00015",
    "tardis:new_particle32_00016",
    "tardis:new_particle32_00017",
    "tardis:new_particle32_00018",
    "tardis:new_particle32_00019",
    "tardis:new_particle32_00020",
    "tardis:new_particle32_00021",
    "tardis:new_particle32_00022",
    "tardis:new_particle32_00023"
  ]
}