{
  "parent": "tardis:obtain_tardis",
  "display": {
    "icon": {
      "item": "tardis:ars_egg"
    },
    "title": {
      "translate": "advancements.tardis.interior.root"
    },
    "description": {
      "translate": "advancements.tardis.interior.root.desc"
    },
    "frame": "task",
    "show_toast": false,
    "announce_to_chat": false,
    "hidden": false
  },
  "criteria": {
    "interior_unlock": {
      "trigger": "interior_unlock"
    }
  },
  "requirements": [
    [
      "interior_unlock"
    ]
  ]
}