{
	"lines":[
		" For more fine-tuned locating, your standard Gallifreyan Pocket Watch detects space-time anomalies"
		," In addition to charming it, it is also possible to just rip the doors open by attaching a lead to a horse or other such animal."
	]
}