{
	"lines":[
		"Flight Hazards (cont.)",
		"",
		"Vertical Displacement Error",
		" Your Timeship landing settings may drift up or down in flight",
		"Use the Vertical Land Type control to realign the Timeship's destination position."
	]
}