{
	"lines":[
		"Vortex Limbo"
		," You can stay in flight after you reached your destination if stabilisers are off."
		," This will last until you either pull the throttle down, run out of fuel or a critical component breaks."
	]
}